…
``` r
homicide |>
  group_by(city_state, disposition) |>
  count(disposition) |>
  rename(cases_num = n)
```

    ## # A tibble: 146 × 3
    ## # Groups:   city_state, disposition [146]
    ##    city_state     disposition           cases_num
    ##    <chr>          <chr>                     <int>
    ##  1 Albuquerque,NM Closed by arrest            232
    ##  2 Albuquerque,NM Closed without arrest        52
    ##  3 Albuquerque,NM Open/No arrest               94
    ##  4 Atlanta,GA     Closed by arrest            600
    ##  5 Atlanta,GA     Closed without arrest        58
    ##  6 Atlanta,GA     Open/No arrest              315
    ##  7 Baltimore,MD   Closed by arrest           1002
    ##  8 Baltimore,MD   Closed without arrest       152
    ##  9 Baltimore,MD   Open/No arrest             1673
    ## 10 Baton Rouge,LA Closed by arrest            228
    ## # ℹ 136 more rows
